…
-   Tentang `mpg` dataset yang disertakan dengan ggplot2,
-   Tiga komponen utama setiap plot: data, estetika, dan geometri,
-   Cara menambahkan variabel tambahan ke plot dengan estetika,
-   Cara menampilkan variabel kategoris tambahan dalam plot menggunakan kelipatan kecil yang dibuat dengan faceting,
-   Berbagai geom berbeda yang dapat Anda gunakan untuk membuat berbagai jenis plot,
-   Cara memodifikasi sumbu,
-   Hal-hal yang dapat Anda lakukan dengan objek plot selain menampilkannya, seperti menyimpannya ke disk.

## 1.2 Data Penghematan Bahan Bakar

Dalam bab ini, kami akan menggunakan satu set data yang dibundel dengan ggplot2: mpg. Data ini mencakup informasi tentang konsumsi bahan bakar model mobil populer pada tahun 1999 dan 2008, yang dikumpulkan oleh Badan Perlindungan Lingkungan AS, <http://fueleconomy.gov> . Anda dapat mengakses data tersebut dengan memuat ggplot2:

```{r}
#> # A tibble: 234 × 11
#>   manufacturer model displ  year   cyl trans      drv     cty   hwy fl    class 
#>   <chr>        <chr> <dbl> <int> <int> <chr>      <chr> <int> <int> <chr> <chr> 
#> 1 audi         a4      1.8  1999     4 auto(l5)   f        18    29 p     compa…
#> 2 audi         a4      1.8  1999     4 manual(m5) f        21    29 p     compa…
#> 3 audi         a4      2    2008     4 manual(m6) f        20    31 p     compa…
#> 4 audi         a4      2    2008     4 auto(av)   f        21    30 p     compa…
#> 5 audi         a4      2.8  1999     6 auto(l5)   f        16    26 p     compa…
#> 6 audi         a4      2.8  1999     6 manual(m5) f        18    26 p     compa…
#> # ℹ 228 more rows
```
…
